
807006/09:58/Budapest/2019-11-12/39/
624666/05:58/Istanbul/2019-11-13/22/
682845/06:58/Baku/2019-11-13/73/
658256/05:58/Bucharest/2019-11-14/25/
405033/05:58/Ankara/2019-11-14/48/
680586/02:58/Tallinn/2019-11-19/87/
503380/23:58/Moscow/2019-11-12/10/

233104/13:34/Budapest/2019-11-14/76/
744543/20:34/Istanbul/2019-11-14/30/
822507/19:34/Baku/2019-11-19/96/
775828/03:34/Bucharest/2019-11-19/27/
483122/22:34/Ankara/2019-11-17/26/
171004/01:34/Tallinn/2019-11-13/15/
185012/16:34/Moscow/2019-11-20/24/
236606/11:34/Berlin/2019-11-12/79/
530526/01:34/Warsaw/2019-11-15/6/
218021/11:34/Milan/2019-11-20/81/
222053/08:39/Budapest/2019-11-13/85/
644020/21:39/Istanbul/2019-11-18/24/
380764/07:39/Baku/2019-11-14/3/
606718/01:39/Bucharest/2019-11-20/57/
226418/01:39/Ankara/2019-11-14/49/
716146/21:39/Tallinn/2019-11-17/77/
022550/21:39/Moscow/2019-11-17/13/
167043/14:39/Berlin/2019-11-18/12/
431670/00:39/Warsaw/2019-11-17/42/
818385/18:39/Milan/2019-11-13/73/
862118/19:05/Budapest/2019-11-15/3/
407242/10:05/Istanbul/2019-11-14/18/
284566/22:05/Baku/2019-11-21/44/
303480/13:05/Bucharest/2019-11-14/96/
466021/09:05/Ankara/2019-11-18/5/
683776/14:05/Tallinn/2019-11-16/20/
488441/23:05/Moscow/2019-11-20/79/
284066/03:05/Berlin/2019-11-14/38/
546264/22:05/Warsaw/2019-11-15/61/
658417/21:05/Milan/2019-11-14/74/
